…
Using the ggplot plotting system, the histogram representing the total steps taken on per day basis is produced using the geom_histogram() function whch is in the *ggplot2* package.


```r
## Total number of steps in a day
library(dplyr)
x <- group_by(dataset,dataset$date)
total_steps_perday <- summarize(x,sum(steps,na.rm=TRUE))
names(total_steps_perday) <- c("date","total steps per day")
total_steps_perday
```

```
## # A tibble: 61 x 2
##    date       `total steps per day`
##    <date>                     <int>
##  1 2012-10-01                     0
##  2 2012-10-02                   126
##  3 2012-10-03                 11352
##  4 2012-10-04                 12116
##  5 2012-10-05                 13294
##  6 2012-10-06                 15420
##  7 2012-10-07                 11015
##  8 2012-10-08                     0
##  9 2012-10-09                 12811
## 10 2012-10-10                  9900
## # ... with 51 more rows
```
…
The new_dataset is grouped based on the day and using the summarize function, the total steps taken in a particular day is calculated and the result in stored in *"total_steps_perday_new"*.


```r
x1 <- group_by(new_dataset,new_dataset$date)
total_steps_perday_new <- summarize(x1,sum(steps,na.rm=TRUE))
names(total_steps_perday_new) <- c("date","total steps per day")
total_steps_perday_new
```

```
## # A tibble: 61 x 2
##    date       `total steps per day`
##    <date>                     <int>
##  1 2012-10-01                  1141
##  2 2012-10-02                   126
##  3 2012-10-03                 11352
##  4 2012-10-04                 12116
##  5 2012-10-05                 13294
##  6 2012-10-06                 15420
##  7 2012-10-07                 11015
##  8 2012-10-08                  1141
##  9 2012-10-09                 12811
## 10 2012-10-10                  9900
## # ... with 51 more rows
```
…
